{
  "current": {
    "heading_color": "#3a2a2f",
    "text_color": "#3a2a2f",
    "accent_color": "#ff6128",
    "link_color": "#ff6128",
    "border_color": "#e7e2de",
    "background": "#f7f4f2",
    "secondary_background": "#ffffff",
    "error_color": "#f71b1b",
    "success_color": "#48b448",
    "primary_button_background": "#f3decf",
    "primary_button_text_color": "#3a2a2f",
    "secondary_button_background": "#3a2a2f",
    "secondary_button_text_color": "#ffffff",
    "header_background": "#ffffff",
    "header_text_color": "#000000",
    "header_light_text_color": "#e9e2dd",
    "header_accent_color": "#f3decf",
    "product_on_sale_accent": "#f71b1b",
    "product_in_stock_color": "#3a2a2f",
    "product_low_stock_color": "#ee0000",
    "product_sold_out_color": "#d1d1d4",
    "product_label_1_background": "#8abbda",
    "product_label_2_background": "#e2ba9c",
    "product_star_color": "#ffb647",
    "color_name_1": "Baby Blue",
    "color_hex_1": "#B3D1E9",
    "color_name_2": "Black Vegan Leather",
    "color_hex_2": "#000",
    "color_name_3": "Sage Green",
    "color_hex_3": "#A5B1A1",
    "color_name_4": "Camel",
    "color_hex_4": "#BCA984",
    "color_name_5": "Charcoal Grey",
    "color_hex_5": "#A3A3A3",
    "color_name_6": "Coconut",
    "color_hex_6": "#D69E7A",
    "color_name_7": "cream",
    "color_hex_7": "#F0F0ED",
    "color_name_8": "Lilac",
    "color_hex_8": "#EBE5EE",
    "color_name_9": "Mink",
    "color_hex_9": "#E6D7D7",
    "color_name_10": "Mocha",
    "color_hex_10": "#DDCAC0",
    "color_name_11": "Champagne",
    "color_hex_11": "#EFE0C8",
    "color_name_12": "Baby Pink",
    "color_hex_12": "#F7F7F7",
    "color_name_13": "Teal Blue",
    "color_hex_13": "#73B2EC",
    "color_name_14": "Mint Green",
    "color_hex_14": "#cfffe5",
    "color_name_15": "Khaki",
    "color_hex_15": "#997E5A",
    "color_name_16": "",
    "color_hex_16": "",
    "color_name_17": "",
    "color_hex_17": "",
    "color_name_18": "",
    "color_hex_18": "",
    "color_name_19": "",
    "color_hex_19": "",
    "color_name_20": "",
    "color_hex_20": "",
    "color_name_21": "",
    "color_hex_21": "",
    "color_name_22": "",
    "base_text_font_size": 15,
    "heading_font": "itc_avant_garde_gothic_n5",
    "text_font": "basic_commercial_n4",
    "underline_links": true,
    "animation_image_zoom": true,
    "search_mode": "product,article,page",
    "show_vendor": false,
    "show_secondary_image": true,
    "show_discount": false,
    "discount_mode": "percentage",
    "product_price_position": "before_title",
    "product_image_size": "natural",
    "show_color_swatch": false,
    "show_inventory_quantity": false,
    "low_inventory_threshold": 1,
    "show_reviews_badge": false,
    "cart_type": "drawer",
    "cart_empty_button_link": "shopify:\/\/collections\/all",
    "cart_show_free_shipping_threshold": false,
    "cart_free_shipping_threshold": "50",
    "social_facebook": "http:\/\/www.facebook.com\/luxetokill",
    "social_twitter": "https:\/\/twitter.com\/luxetokill",
    "social_blog": "",
    "social_pinterest": "",
    "social_instagram": "https:\/\/www.instagram.com\/luxetokill\/",
    "social_vimeo": "",
    "social_tumblr": "",
    "social_youtube": "",
    "social_linkedin": "",
    "social_snapchat": "",
    "social_fancy": "",
    "favicon": "shopify:\/\/shop_images\/favicon_2.png",
    "checkout_header_image": "",
    "checkout_logo_image": "shopify:\/\/shop_images\/logo.png",
    "checkout_logo_position": "center",
    "checkout_logo_size": "small",
    "checkout_body_background_image": "",
    "checkout_body_background_color": "rgba(0,0,0,0)",
    "checkout_input_background_color_mode": "white",
    "checkout_sidebar_background_image": "",
    "checkout_sidebar_background_color": "#f7f4f2",
    "checkout_heading_font": "-apple-system, BlinkMacSystemFont, 'Segoe UI', Roboto, Helvetica, Arial, sans-serif, 'Apple Color Emoji', 'Segoe UI Emoji', 'Segoe UI Symbol'",
    "checkout_body_font": "-apple-system, BlinkMacSystemFont, 'Segoe UI', Roboto, Helvetica, Arial, sans-serif, 'Apple Color Emoji', 'Segoe UI Emoji', 'Segoe UI Symbol'",
    "checkout_accent_color": "#b3a598",
    "checkout_button_color": "#d4c4b4",
    "checkout_error_color": "#d4c4b4",
    "sections": {
      "header": {
        "type": "header",
        "blocks": {
          "1595749647345": {
            "type": "mega_menu",
            "settings": {
              "menu_item": "",
              "image_1": "shopify:\/\/shop_images\/Product_Images14.jpg",
              "image_1_heading": "LTK Collection",
              "image_1_text": "",
              "image_1_link": "#",
              "image_2": "shopify:\/\/shop_images\/Webp.net-resizeimage_4.jpg",
              "image_2_heading": "Premium Lounge",
              "image_2_text": "",
              "image_2_link": "#"
            }
          },
          "1595749815344": {
            "type": "mega_menu",
            "settings": {
              "menu_item": "UP TO 90% OFF SALE",
              "image_1_heading": "Your image",
              "image_1_text": "Tell your story",
              "image_2_heading": "Your image",
              "image_2_text": "Tell your story"
            }
          },
          "1601013126559": {
            "type": "mega_menu",
            "settings": {
              "menu_item": "shoes",
              "image_1_heading": "Your image",
              "image_1_text": "Tell your story",
              "image_2_heading": "Your image",
              "image_2_text": "Tell your story"
            }
          }
        },
        "block_order": [
          "1595749647345",
          "1595749815344",
          "1601013126559"
        ],
        "settings": {
          "enable_sticky_header": true,
          "logo": "shopify:\/\/shop_images\/logo.png",
          "logo_max_width": 215,
          "mobile_logo_max_width": 100,
          "show_locale_selector": true,
          "show_currency_selector": true,
          "navigation_menu": "main-menu-1",
          "desktop_navigation_layout": "inline",
          "desktop_navigation_open_trigger": "hover",
          "show_navigation_social_media": true,
          "navigation_phone_number": "",
          "navigation_email": "info@luxetokill.com",
          "show_condensed_search": true,
          "show_search_filter": true,
          "search_menu": "",
          "show_search_menu_title": true
        }
      },
      "footer": {
        "type": "footer",
        "blocks": {
          "footer-1": {
            "type": "links",
            "settings": {
              "menu": "footer"
            }
          },
          "1595751638599": {
            "type": "links",
            "settings": {
              "menu": "about-us"
            }
          },
          "footer-0": {
            "type": "text",
            "settings": {
              "title": "Returns Policy",
              "content": "<p>We promise to refund any unworn item returned back to us within 28 days of purchase. See our returns page for more info.<\/p>"
            }
          },
          "71d27998-ac3e-40b5-ac64-51f539b9469d": {
            "type": "text",
            "settings": {
              "title": "Delivery options",
              "content": "<p><strong>£2.99 <\/strong>Standard Delivery - Free over £50  <\/p><p><strong>£4.99 <\/strong>Next Working Day - Free over £99<\/p><p><strong>£4.99 <\/strong>Saturday Delivery - Free over £99<\/p><p><strong>£7.99 <\/strong>Special Delivery by 4pm<\/p>"
            }
          }
        },
        "block_order": [
          "footer-1",
          "1595751638599",
          "footer-0",
          "71d27998-ac3e-40b5-ac64-51f539b9469d"
        ],
        "settings": {
          "title": "WANT 10% OFF YOUR NEXT LUXE?",
          "content": "<p>Sign up to our newsletter and get the latest on trends, deals, blog and more!<\/p>",
          "show_social_media": true,
          "show_payment_icons": true,
          "show_locale_selector": true,
          "show_currency_selector": true,
          "show_cookie_bar": false,
          "text": "<p>Use this bar to show information about your cookie policy.<\/p>",
          "accept_button": "Accept"
        }
      },
      "slideshow": {
        "type": "slideshow",
        "blocks": {
          "slide-0": {
            "type": "image",
            "settings": {
              "image": "shopify:\/\/shop_images\/luxeloungeb.jpg",
              "mobile_image": "shopify:\/\/shop_images\/LUXELOUNGEMOBILE.jpg",
              "show_overlay": false,
              "overlay_opacity": 30,
              "text_color": "#ffffff",
              "title": "",
              "content": "",
              "content_position": "middle_center",
              "button_background": "#ffffff",
              "button_text_color": "#000000",
              "button_text": "",
              "link": "#"
            }
          },
          "slide-1": {
            "type": "image",
            "settings": {
              "image": "shopify:\/\/shop_images\/LUXE-BY-YOU-DESKTOP.jpg",
              "mobile_image": "shopify:\/\/shop_images\/LUXE-BY-YOU.jpg",
              "show_overlay": false,
              "overlay_opacity": 30,
              "text_color": "#ffffff",
              "title": "",
              "content": "",
              "content_position": "middle_center",
              "button_background": "#ffffff",
              "button_text_color": "#000000",
              "button_text": "",
              "link": "#"
            }
          },
          "1595612871241": {
            "type": "image",
            "settings": {
              "image": "shopify:\/\/shop_images\/NEUTRAL.jpg",
              "mobile_image": "shopify:\/\/shop_images\/NEUTRAL-MOBILE.jpg",
              "show_overlay": false,
              "overlay_opacity": 30,
              "text_color": "#ffffff",
              "title": "",
              "content": "",
              "content_position": "middle_center",
              "button_background": "#ffffff",
              "button_text_color": "#000000",
              "button_text": "",
              "link": "#"
            }
          },
          "1601398949189": {
            "type": "image",
            "settings": {
              "image": "shopify:\/\/shop_images\/SWEATSMOBILE.jpg",
              "mobile_image": "shopify:\/\/shop_images\/SWEATSDESK.jpg",
              "show_overlay": false,
              "overlay_opacity": 30,
              "text_color": "#ffffff",
              "title": "Slide title",
              "content": "Tell your story",
              "content_position": "middle_center",
              "button_background": "#ffffff",
              "button_text_color": "#000000",
              "button_text": "Button"
            }
          },
          "1601398973482": {
            "type": "image",
            "settings": {
              "image": "shopify:\/\/shop_images\/endsaledesktop.jpg",
              "mobile_image": "shopify:\/\/shop_images\/endsale.jpg",
              "show_overlay": false,
              "overlay_opacity": 30,
              "text_color": "#ffffff",
              "title": "Slide title",
              "content": "Tell your story",
              "content_position": "middle_center",
              "button_background": "#ffffff",
              "button_text_color": "#000000",
              "button_text": "Button"
            }
          }
        },
        "block_order": [
          "slide-0",
          "slide-1",
          "1595612871241",
          "1601398949189",
          "1601398973482"
        ],
        "settings": {
          "edge_to_edge": true,
          "section_size": "preserve_ratio",
          "carousel_effect": "fade",
          "autoplay": true,
          "cycle_speed": 5,
          "background": "#000000",
          "color": "#ffffff"
        }
      },
      "collection-list": {
        "type": "collection-list",
        "blocks": {
          "collection-0": {
            "type": "collection",
            "settings": {
              "collection": "tops",
              "image": "shopify:\/\/shop_images\/LTKSWEATSHOODIES.jpg"
            }
          },
          "collection-1": {
            "type": "collection",
            "settings": {
              "collection": "sweatshirts",
              "image": "shopify:\/\/shop_images\/LTKSWEATS287SWEAT.jpg"
            }
          },
          "collection-2": {
            "type": "collection",
            "settings": {
              "collection": "shorts",
              "image": "shopify:\/\/shop_images\/SHORTS.jpg"
            }
          },
          "1601911305394": {
            "type": "collection",
            "settings": {
              "collection": "joggers",
              "image": "shopify:\/\/shop_images\/LTKSWEATS287.jpg"
            }
          }
        },
        "block_order": [
          "collection-0",
          "collection-1",
          "collection-2",
          "1601911305394"
        ],
        "settings": {
          "title": "",
          "link_title": "View all",
          "link": "shopify:\/\/collections",
          "round_images": false,
          "show_collection_title": false
        }
      },
      "collection-template": {
        "type": "collection-template",
        "settings": {
          "show_collection_image": true,
          "collapse_collection_description": true,
          "collection_image_size": "small",
          "products_per_row": "4",
          "default_products_per_page": 24,
          "default_view_layout": "grid",
          "show_quick_buy": "list",
          "show_quick_view": "list",
          "quick_links": "",
          "quick_links_show_products_count": true,
          "show_filters": true,
          "show_filter_color_swatch": true,
          "filter_type": "group",
          "open_group_filters_mode": "all_closed",
          "filter_group_order": ""
        }
      },
      "recently-viewed-products": {
        "type": "recently-viewed-products",
        "settings": {
          "title": "Recently viewed",
          "show_quick_buy": false
        }
      },
      "product-template": {
        "type": "product-template",
        "settings": {
          "show_vendor": false,
          "show_sku": false,
          "show_share_buttons": true,
          "show_taxes_included": false,
          "selector_mode": "block",
          "color_mode": "color",
          "show_quantity_selector": false,
          "show_payment_button": false,
          "image_size": "small",
          "enable_image_zoom": true,
          "enable_video_looping": false,
          "zoom_effect": "outside",
          "carousel_effect": "fade",
          "show_inventory_quantity": false,
          "low_inventory_threshold": 0,
          "content_display_mode": "show_all",
          "enable_reviews": false,
          "show_reviews_badge": false,
          "trust_title": "Payment & Security",
          "show_payment_icons": false,
          "show_shipping_estimator": false,
          "shipping_estimator_default_country": "United States",
          "show_refunds_policy": false
        }
      },
      "product-recommendations": {
        "type": "product-recommendations",
        "settings": {
          "show_product_recommendations": true,
          "heading": "You may also like",
          "show_quick_buy": false
        }
      },
      "announcement-bar": {
        "type": "announcement-bar",
        "blocks": {
          "1600318482994": {
            "type": "text",
            "settings": {
              "announcement": "Free UK Delivery When You Spend Over £50"
            }
          },
          "1600318506088": {
            "type": "text",
            "settings": {
              "announcement": "Now With Hassle Free UK Returns!"
            }
          },
          "1600881086205": {
            "type": "text",
            "settings": {
              "announcement": "Students Get Extra10% Off With STUDENT BEANS"
            }
          }
        },
        "block_order": [
          "1600318482994",
          "1600318506088",
          "1600881086205"
        ],
        "settings": {
          "show_announcement": true,
          "background": "#000000",
          "color": "#ffffff"
        }
      },
      "1542984811767": {
        "type": "featured-collection",
        "disabled": true,
        "settings": {
          "products_count": 6,
          "layout": "vertical",
          "stack_desktop": false,
          "show_quick_buy": false
        }
      },
      "1550833441117": {
        "type": "collection-with-image",
        "disabled": true,
        "settings": {
          "products_count": 4,
          "image": "shopify:\/\/shop_images\/fashionable-woman-in-toronto.jpg",
          "background": "#e2ba9c",
          "text_color": "#ffffff",
          "title": "",
          "content": "",
          "button_background": "#a95ebe",
          "button_text_color": "#ffffff",
          "button_text": ""
        }
      },
      "1555314133560": {
        "type": "promotion-list",
        "disabled": true,
        "blocks": {
          "1555314133560-0": {
            "type": "item",
            "settings": {
              "show_overlay": false,
              "overlay_opacity": 50,
              "stretch_image": false,
              "background": "#6f42ef",
              "text_color": "#ffffff",
              "title": "Your heading",
              "content": "Tell more about your product, collection...",
              "content_position": "top_left",
              "button_background": "#ffffff",
              "button_text_color": "#6f42ef",
              "button_text": "Learn more"
            }
          },
          "1555314133560-1": {
            "type": "item",
            "settings": {
              "show_overlay": false,
              "overlay_opacity": 50,
              "stretch_image": false,
              "background": "#fc2a68",
              "text_color": "#ffffff",
              "title": "Your heading",
              "content": "Tell more about your product, collection...",
              "content_position": "top_left",
              "button_background": "#ffffff",
              "button_text_color": "#fc2a68",
              "button_text": "Learn more"
            }
          },
          "1555314133560-2": {
            "type": "item",
            "settings": {
              "show_overlay": false,
              "overlay_opacity": 50,
              "stretch_image": false,
              "background": "#26c1ce",
              "text_color": "#ffffff",
              "title": "Your heading",
              "content": "Tell more about your product, collection...",
              "content_position": "top_left",
              "button_background": "#ffffff",
              "button_text_color": "#26c1ce",
              "button_text": "Learn more"
            }
          }
        },
        "block_order": [
          "1555314133560-0",
          "1555314133560-1",
          "1555314133560-2"
        ],
        "settings": {
          "expand_items": false,
          "section_size": "medium",
          "stack_mobile": false
        }
      },
      "popups": {
        "type": "popups",
        "settings": {}
      },
      "text-with-icons": {
        "type": "text-with-icons",
        "blocks": {
          "text-with-icons-0": {
            "type": "item",
            "settings": {
              "icon": "bi-delivery",
              "title": "Free delivery worldwide",
              "content": "<p>Short content about your store<\/p>"
            }
          },
          "text-with-icons-1": {
            "type": "item",
            "settings": {
              "icon": "bi-returns",
              "title": "Satisfied or refunded",
              "content": "<p>Short content about your store<\/p>"
            }
          },
          "text-with-icons-2": {
            "type": "item",
            "settings": {
              "icon": "bi-customer-support",
              "title": "Top-notch support",
              "content": "<p>Short content about your store<\/p>"
            }
          },
          "text-with-icons-3": {
            "type": "item",
            "settings": {
              "icon": "bi-secure-payment",
              "title": "Secure payments",
              "content": "<p>Short content about your store<\/p>"
            }
          }
        },
        "block_order": [
          "text-with-icons-0",
          "text-with-icons-1",
          "text-with-icons-2",
          "text-with-icons-3"
        ],
        "settings": {
          "show_section": false,
          "stack_mobile": false
        }
      },
      "static-promotion-list": {
        "type": "static-promotion-list",
        "settings": {
          "expand_items": false,
          "section_size": "medium",
          "stack_mobile": false
        }
      },
      "static-recently-viewed-products": {
        "type": "static-recently-viewed-products",
        "settings": {
          "show_section": true,
          "title": "Recently viewed",
          "show_quick_buy": false
        }
      },
      "1601404456145": {
        "type": "collection-list",
        "blocks": {
          "1601404456145-0": {
            "type": "collection",
            "settings": {
              "collection": "joggers",
              "image": "shopify:\/\/shop_images\/120847209_943359826150630_1800438178037701735_n.jpg"
            }
          },
          "1601404456145-1": {
            "type": "collection",
            "settings": {
              "collection": "sweatshirts-and-hoodies",
              "image": "shopify:\/\/shop_images\/120843875_752892298889847_7413532953765359382_n.jpg"
            }
          }
        },
        "block_order": [
          "1601404456145-0",
          "1601404456145-1"
        ],
        "settings": {
          "title": "",
          "link_title": "",
          "link": "shopify:\/\/collections",
          "round_images": false,
          "show_collection_title": false
        }
      },
      "1601916990221": {
        "type": "slideshow",
        "blocks": {
          "1601916990221-0": {
            "type": "image",
            "settings": {
              "image": "shopify:\/\/shop_images\/luxeloungeb.jpg",
              "mobile_image": "shopify:\/\/shop_images\/LUXELOUNGEMOBILE.jpg",
              "show_overlay": true,
              "overlay_opacity": 30,
              "text_color": "#000000",
              "title": "New arrival",
              "content": "",
              "content_position": "top_left",
              "button_background": "#000000",
              "button_text_color": "#ffffff",
              "button_text": "Our New Collections",
              "link": "shopify:\/\/collections"
            }
          }
        },
        "block_order": [
          "1601916990221-0"
        ],
        "settings": {
          "edge_to_edge": true,
          "section_size": "preserve_ratio",
          "carousel_effect": "slide",
          "autoplay": true,
          "cycle_speed": 5,
          "background": "#000000",
          "color": "#ffffff"
        }
      },
      "1601917423823": {
        "type": "image-with-text",
        "disabled": true,
        "settings": {
          "image": "shopify:\/\/shop_images\/SHORTS.jpg",
          "image_position": "right",
          "image_width": 50,
          "title": "New Short collection",
          "content": "<p>Give your off-duty look a new lease of life with our sweat shorts. Team with a basic sweater and some chunky trainers for the ultimate off-duty combo.<\/p>",
          "button_text": "Our products",
          "button_link": "shopify:\/\/collections\/all"
        }
      },
      "1601917995169": {
        "type": "maestrooo-instagram",
        "settings": {
          "title": "@Follow Us On Instagram",
          "subheading": "<p>Write content about your brand<\/p>",
          "button_text": "",
          "layout": "collage",
          "image_size": "medium",
          "full_width": false,
          "add_spacing": true,
          "rows_count": 2,
          "show_author": false,
          "show_caption": true,
          "show_date": true,
          "click_action": "open_instagram",
          "heading_color": "#000000",
          "subheading_color": "#000000",
          "button_background": "#000000",
          "button_color": "#ffffff",
          "overlay_color": "#000000",
          "overlay_text_color": "#ffffff",
          "overlay_opacity": 65
        }
      },
      "160221778868275228": {
        "type": "newsletter",
        "disabled": true,
        "settings": {
          "title": "WANT 10% OFF YOUR NEXT LUXE?",
          "content": "<p>Sign up to our newsletter and get the latest on trends, deals, blog and more!<\/p>"
        }
      },
      "static-newsletter": {
        "type": "static-newsletter",
        "settings": {
          "show_section": true,
          "title": "Subscribe to our newsletter",
          "content": "<p>A short sentence describing what someone will receive by subscribing<\/p>",
          "subtext": "100% free, Unsubscribe any time!",
          "background": "#1e2d7d",
          "text": "#ffffff"
        }
      },
      "1603140123dd0dbd24": {
        "type": "offers",
        "settings": {
          "items_per_row": 2,
          "stack_mobile": false
        }
      },
      "cart-template": {
        "type": "cart-template",
        "settings": {
          "enable_order_notes": true,
          "show_payment_icons": true,
          "gift_wrap_text": "Do you want a gift wrap?",
          "gift_wrap_button": "Add a gift wrap",
          "show_shipping_estimator": true,
          "shipping_estimator_default_country": "United States",
          "trust_heading": "Our guarantees",
          "upsell_heading": "Complete your cart",
          "upsell_products_count": 4
        }
      }
    },
    "content_for_index": [
      "slideshow",
      "1555314133560",
      "collection-list",
      "1601916990221",
      "1550833441117",
      "1601404456145",
      "1542984811767",
      "1601917423823",
      "1601917995169",
      "160221778868275228",
      "1603140123dd0dbd24"
    ]
  },
  "presets": {
    "Metal": {
      "heading_color": "#1e2d7d",
      "text_color": "#677279",
      "accent_color": "#00badb",
      "link_color": "#00badb",
      "border_color": "#e1e3e4",
      "background": "#f3f5f6",
      "secondary_background": "#ffffff",
      "error_color": "#ff0000",
      "success_color": "#00aa00",
      "primary_button_background": "#00badb",
      "primary_button_text_color": "#ffffff",
      "secondary_button_background": "#1e2d7d",
      "secondary_button_text_color": "#ffffff",
      "header_background": "#1e2d7d",
      "header_text_color": "#ffffff",
      "header_light_text_color": "#a3afef",
      "header_accent_color": "#00badb",
      "product_on_sale_accent": "#ee0000",
      "product_in_stock_color": "#008a00",
      "product_low_stock_color": "#ee0000",
      "product_sold_out_color": "#8a9297",
      "product_label_1_background": "#008a00",
      "product_label_2_background": "#00a500",
      "product_star_color": "#ffbd00",
      "base_text_font_size": 16,
      "heading_font": "din_next_n5",
      "text_font": "din_next_n4",
      "underline_links": true,
      "animation_image_zoom": true,
      "search_mode": "product,article",
      "show_vendor": true,
      "show_secondary_image": true,
      "product_price_position": "after_title",
      "product_image_size": "natural",
      "show_discount": true,
      "discount_mode": "saving",
      "show_color_swatch": false,
      "show_inventory_quantity": false,
      "low_inventory_threshold": 0,
      "show_reviews_badge": false,
      "cart_type": "drawer",
      "cart_empty_button_link": "shopify:\/\/collections\/all",
      "cart_show_free_shipping_threshold": false,
      "cart_free_shipping_threshold": "50",
      "share_image": "",
      "social_facebook": "",
      "social_twitter": "",
      "social_google_plus": "",
      "social_pinterest": "",
      "social_instagram": "",
      "social_vimeo": "",
      "social_tumblr": "",
      "social_youtube": "",
      "social_linkedin": "",
      "social_snapchat": "",
      "social_fancy": "",
      "favicon": "",
      "checkout_header_image": "",
      "checkout_logo_image": "",
      "checkout_logo_position": "left",
      "checkout_logo_size": "medium",
      "checkout_body_background_image": "",
      "checkout_body_background_color": "#fff",
      "checkout_input_background_color_mode": "white",
      "checkout_sidebar_background_image": "",
      "checkout_sidebar_background_color": "#fafafa",
      "checkout_heading_font": "-apple-system, BlinkMacSystemFont, 'Segoe UI', Roboto, Helvetica, Arial, sans-serif, 'Apple Color Emoji', 'Segoe UI Emoji', 'Segoe UI Symbol'",
      "checkout_body_font": "-apple-system, BlinkMacSystemFont, 'Segoe UI', Roboto, Helvetica, Arial, sans-serif, 'Apple Color Emoji', 'Segoe UI Emoji', 'Segoe UI Symbol'",
      "checkout_accent_color": "#00badb",
      "checkout_button_color": "#00badb",
      "checkout_error_color": "#ff0000",
      "sections": {
        "header": {
          "type": "header",
          "settings": {
            "logo": "",
            "logo_max_width": 140,
            "mobile_logo_max_width": 100,
            "navigation_menu": "main-menu",
            "desktop_navigation_layout": "inline",
            "desktop_navigation_open_trigger": "hover",
            "navigation_phone_number": "Call us 000-000-0000",
            "navigation_email": "info@yourwebsite.com",
            "search_menu": ""
          }
        },
        "footer": {
          "type": "footer",
          "blocks": {
            "footer-0": {
              "type": "text",
              "settings": {
                "title": "About the shop",
                "content": "<p>Use this text area to tell your customers about your brand and vision. You can change it in the theme settings.<\/p>"
              }
            },
            "footer-1": {
              "type": "links",
              "settings": {
                "menu": "footer"
              }
            },
            "footer-2": {
              "type": "newsletter",
              "settings": {
                "title": "Newsletter",
                "subheading": "<p>A short sentence describing what someone will receive by subscribing<\/p>"
              }
            }
          },
          "block_order": [
            "footer-0",
            "footer-1",
            "footer-2"
          ],
          "settings": {
            "show_social_media": true,
            "show_payment_icons": true
          }
        },
        "slideshow": {
          "type": "slideshow",
          "blocks": {
            "slide-0": {
              "type": "image",
              "settings": {
                "image": "",
                "mobile_image": "",
                "text_color": "#ffffff",
                "title": "Tell your story",
                "content": "Tell your story",
                "content_position": "bottomLeft",
                "button_background": "#ffffff",
                "button_text_color": "#000000",
                "button_text": "Button",
                "link": ""
              }
            },
            "slide-1": {
              "type": "image",
              "settings": {
                "image": "",
                "mobile_image": "",
                "text_color": "#ffffff",
                "title": "Tell your story",
                "content": "Tell your story",
                "content_position": "bottomLeft",
                "button_background": "#ffffff",
                "button_text_color": "#000000",
                "button_text": "Button",
                "link": ""
              }
            }
          },
          "block_order": [
            "slide-0",
            "slide-1"
          ],
          "settings": {
            "edge_to_edge": true,
            "section_size": "preserve_ratio",
            "cycle_speed": 5
          }
        },
        "collection-list": {
          "type": "collection-list",
          "blocks": {
            "collection-0": {
              "type": "collection",
              "settings": {
                "collection": "",
                "image": ""
              }
            },
            "collection-1": {
              "type": "collection",
              "settings": {
                "collection": "",
                "image": ""
              }
            },
            "collection-2": {
              "type": "collection",
              "settings": {
                "collection": "",
                "image": ""
              }
            },
            "collection-3": {
              "type": "collection",
              "settings": {
                "collection": "",
                "image": ""
              }
            },
            "collection-4": {
              "type": "collection",
              "settings": {
                "collection": "",
                "image": ""
              }
            },
            "collection-5": {
              "type": "collection",
              "settings": {
                "collection": "",
                "image": ""
              }
            }
          },
          "block_order": [
            "collection-0",
            "collection-1",
            "collection-2",
            "collection-3",
            "collection-4",
            "collection-5"
          ],
          "settings": {
            "title": "Our collections",
            "link_title": "View all",
            "link": "shopify:\/\/collections"
          }
        },
        "featured-product": {
          "type": "featured-product",
          "settings": {
            "product": "",
            "title": "Featured product",
            "selector_mode": "block",
            "color_mode": "color",
            "zoom_effect": "outside",
            "carousel_effect": "fade",
            "low_inventory_threshold": 0
          }
        },
        "collection-template": {
          "type": "collection-template",
          "settings": {
            "collection_image_size": "small",
            "default_view_layout": "grid",
            "show_quick_buy": "list",
            "show_quick_view": "list",
            "quick_links": "",
            "filter_type": "tag"
          }
        },
        "recently-viewed-products": {
          "type": "recently-viewed-products",
          "settings": {
            "title": "Recently viewed"
          }
        },
        "product-template": {
          "type": "product-template",
          "settings": {
            "selector_mode": "block",
            "color_mode": "color",
            "zoom_effect": "outside",
            "carousel_effect": "fade",
            "low_inventory_threshold": 0,
            "tab_page_1_handle": "",
            "tab_page_2_handle": "",
            "tab_page_3_handle": "",
            "custom_security_badge": ""
          }
        },
        "product-recommendations": {
          "type": "product-recommendations",
          "settings": {}
        },
        "announcement-bar": {
          "type": "announcement-bar",
          "settings": {
            "background": "#1e2d7d"
          }
        },
        "1542984811767": {
          "type": "featured-collection",
          "settings": {
            "collection": "",
            "title": "Featured collection",
            "products_count": 12,
            "layout": "vertical",
            "link_title": "View all"
          }
        },
        "1542984842027": {
          "type": "newsletter",
          "settings": {
            "title": "Newsletter",
            "content": "<p>A short sentence describing what someone will receive by subscribing<\/p>"
          }
        },
        "1542984882560": {
          "type": "blog-posts",
          "settings": {
            "blog": "news",
            "title": "Blog posts"
          }
        }
      },
      "content_for_index": [
        "slideshow",
        "1542984811767",
        "collection-list",
        "1542984842027",
        "featured-product",
        "1542984882560"
      ]
    },
    "Wood": {
      "heading_color": "#3a2a2f",
      "text_color": "#3a2a2f",
      "accent_color": "#ff6128",
      "link_color": "#ff6128",
      "border_color": "#e7e2de",
      "background": "#f7f4f2",
      "secondary_background": "#ffffff",
      "error_color": "#f71b1b",
      "success_color": "#48b448",
      "primary_button_background": "#ff6128",
      "primary_button_text_color": "#ffffff",
      "secondary_button_background": "#3a2a2f",
      "secondary_button_text_color": "#ffffff",
      "header_background": "#3a2a2f",
      "header_text_color": "#ffffff",
      "header_light_text_color": "#e9e2dd",
      "header_accent_color": "#ff6128",
      "product_on_sale_accent": "#ee0000",
      "product_in_stock_color": "#008a00",
      "product_low_stock_color": "#ee0000",
      "product_sold_out_color": "#d1d1d4",
      "product_label_1_background": "#ff6128",
      "product_label_2_background": "#a95ebe",
      "product_star_color": "#ffb647",
      "base_text_font_size": 15,
      "heading_font": "itc_avant_garde_gothic_n5",
      "text_font": "basic_commercial_n4",
      "underline_links": true,
      "animation_image_zoom": true,
      "search_mode": "product,article,page",
      "show_vendor": true,
      "show_secondary_image": true,
      "show_discount": true,
      "discount_mode": "percentage",
      "product_price_position": "after_title",
      "product_image_size": "square",
      "show_color_swatch": false,
      "show_inventory_quantity": true,
      "low_inventory_threshold": 1,
      "show_reviews_badge": false,
      "cart_type": "drawer",
      "cart_empty_button_link": "shopify:\/\/collections\/all",
      "cart_show_free_shipping_threshold": true,
      "cart_free_shipping_threshold": "50",
      "checkout_logo_position": "center",
      "checkout_logo_size": "medium",
      "checkout_body_background_image": "",
      "checkout_body_background_color": "#fff",
      "checkout_input_background_color_mode": "white",
      "checkout_sidebar_background_image": "",
      "checkout_sidebar_background_color": "#f7f4f2",
      "checkout_heading_font": "-apple-system, BlinkMacSystemFont, 'Segoe UI', Roboto, Helvetica, Arial, sans-serif, 'Apple Color Emoji', 'Segoe UI Emoji', 'Segoe UI Symbol'",
      "checkout_body_font": "-apple-system, BlinkMacSystemFont, 'Segoe UI', Roboto, Helvetica, Arial, sans-serif, 'Apple Color Emoji', 'Segoe UI Emoji', 'Segoe UI Symbol'",
      "checkout_accent_color": "#ff6128",
      "checkout_button_color": "#ff6128",
      "checkout_error_color": "#f71b1b",
      "sections": {
        "header": {
          "type": "header",
          "settings": {
            "logo": "",
            "logo_max_width": 140,
            "mobile_logo_max_width": 100,
            "navigation_menu": "main-menu",
            "desktop_navigation_layout": "inline",
            "desktop_navigation_open_trigger": "hover",
            "navigation_phone_number": "Call us 000-000-0000",
            "navigation_email": "info@yourwebsite.com",
            "search_menu": ""
          }
        },
        "footer": {
          "type": "footer",
          "blocks": {
            "footer-0": {
              "type": "text",
              "settings": {
                "title": "About the shop",
                "content": "<p>Use this text area to tell your customers about your brand and vision. You can change it in the theme settings.<\/p>"
              }
            },
            "footer-1": {
              "type": "links",
              "settings": {
                "menu": "footer"
              }
            },
            "footer-2": {
              "type": "newsletter",
              "settings": {
                "title": "Newsletter",
                "subheading": "<p>A short sentence describing what someone will receive by subscribing<\/p>"
              }
            }
          },
          "block_order": [
            "footer-0",
            "footer-1",
            "footer-2"
          ],
          "settings": {
            "show_social_media": true,
            "show_payment_icons": true
          }
        },
        "slideshow": {
          "type": "slideshow",
          "blocks": {
            "slide-0": {
              "type": "image",
              "settings": {
                "image": "",
                "mobile_image": "",
                "text_color": "#ffffff",
                "title": "Tell your story",
                "content": "Tell your story",
                "content_position": "bottomLeft",
                "button_background": "#ffffff",
                "button_text_color": "#000000",
                "button_text": "Button",
                "link": ""
              }
            },
            "slide-1": {
              "type": "image",
              "settings": {
                "image": "",
                "mobile_image": "",
                "text_color": "#ffffff",
                "title": "Tell your story",
                "content": "Tell your story",
                "content_position": "bottomLeft",
                "button_background": "#ffffff",
                "button_text_color": "#000000",
                "button_text": "Button",
                "link": ""
              }
            }
          },
          "block_order": [
            "slide-0",
            "slide-1"
          ],
          "settings": {
            "edge_to_edge": true,
            "section_size": "preserve_ratio",
            "cycle_speed": 5
          }
        },
        "collection-list": {
          "type": "collection-list",
          "blocks": {
            "collection-0": {
              "type": "collection",
              "settings": {
                "collection": "",
                "image": ""
              }
            },
            "collection-1": {
              "type": "collection",
              "settings": {
                "collection": "",
                "image": ""
              }
            },
            "collection-2": {
              "type": "collection",
              "settings": {
                "collection": "",
                "image": ""
              }
            },
            "collection-3": {
              "type": "collection",
              "settings": {
                "collection": "",
                "image": ""
              }
            },
            "collection-4": {
              "type": "collection",
              "settings": {
                "collection": "",
                "image": ""
              }
            },
            "collection-5": {
              "type": "collection",
              "settings": {
                "collection": "",
                "image": ""
              }
            }
          },
          "block_order": [
            "collection-0",
            "collection-1",
            "collection-2",
            "collection-3",
            "collection-4",
            "collection-5"
          ],
          "settings": {
            "title": "Our collections",
            "link_title": "View all",
            "link": "shopify:\/\/collections"
          }
        },
        "collection-template": {
          "type": "collection-template",
          "settings": {
            "collection_image_size": "small",
            "default_view_layout": "grid",
            "show_quick_buy": "list",
            "show_quick_view": "list",
            "quick_links": "",
            "filter_type": "tag"
          }
        },
        "recently-viewed-products": {
          "type": "recently-viewed-products",
          "settings": {
            "title": "Recently viewed"
          }
        },
        "product-template": {
          "type": "product-template",
          "settings": {
            "selector_mode": "block",
            "color_mode": "color",
            "zoom_effect": "outside",
            "carousel_effect": "fade",
            "low_inventory_threshold": 0,
            "tab_page_1_handle": "",
            "tab_page_2_handle": "",
            "tab_page_3_handle": "",
            "custom_security_badge": ""
          }
        },
        "product-recommendations": {
          "type": "product-recommendations",
          "settings": {}
        },
        "announcement-bar": {
          "type": "announcement-bar",
          "settings": {
            "background": "#3a2a2f"
          }
        },
        "1542984811767": {
          "type": "featured-collection",
          "settings": {
            "collection": "",
            "title": "Featured collection",
            "products_count": 12,
            "layout": "vertical",
            "link_title": "View all"
          }
        },
        "1550833441117": {
          "type": "collection-with-image",
          "settings": {
            "collection": "",
            "products_count": 12,
            "image": "",
            "background": "#3a2a2f",
            "text_color": "#ffffff",
            "title": "Our best sellers",
            "content": "Shop our most popular products for this season.",
            "button_background": "#e95d2b",
            "button_text_color": "#ffffff",
            "button_text": "Learn more",
            "button_link": ""
          }
        },
        "1555314133560": {
          "type": "promotion-list",
          "blocks": {
            "1555314133560-0": {
              "type": "item",
              "settings": {
                "image": "",
                "show_overlay": false,
                "stretch_image": false,
                "background": "#6f42ef",
                "text_color": "#ffffff",
                "title": "Your heading",
                "content": "Tell more about your product, collection...",
                "button_background": "#ffffff",
                "button_text_color": "#6f42ef",
                "button_text": "Learn more",
                "button_link": ""
              }
            },
            "1555314133560-1": {
              "type": "item",
              "settings": {
                "image": "",
                "show_overlay": false,
                "stretch_image": false,
                "background": "#fc2a68",
                "text_color": "#ffffff",
                "title": "Your heading",
                "content": "Tell more about your product, collection...",
                "button_background": "#ffffff",
                "button_text_color": "#fc2a68",
                "button_text": "Learn more",
                "button_link": ""
              }
            },
            "1555314133560-2": {
              "type": "item",
              "settings": {
                "image": "",
                "show_overlay": false,
                "stretch_image": false,
                "background": "#26c1ce",
                "text_color": "#ffffff",
                "title": "Your heading",
                "content": "Tell more about your product, collection...",
                "button_background": "#ffffff",
                "button_text_color": "#26c1ce",
                "button_text": "Learn more",
                "button_link": ""
              }
            }
          },
          "block_order": [
            "1555314133560-0",
            "1555314133560-1",
            "1555314133560-2"
          ],
          "settings": {
            "expand_items": false,
            "section_size": "medium",
            "stack_mobile": false
          }
        },
        "1542984882560": {
          "type": "blog-posts",
          "settings": {
            "blog": "news",
            "title": "Blog posts"
          }
        }
      },
      "content_for_index": [
        "slideshow",
        "1542984811767",
        "1555314133560",
        "collection-list",
        "1550833441117",
        "1542984882560"
      ]
    }
  }
}